Id_Pais,Nombre_Pais,Region,Pbi2022
CHL,REPÚBLICA  DE  CHILE,AMÉRICA  DEL  SUR,15355.4797401048
USA,Estados  Unidos  de  América,AMÉRICA  DEL  NORTE,76329.5822652029
ESP,REINO  DE  ESPAÑA,EUROPA  OCCIDENTAL,29674.5442864413
CHN,REPÚBLICA  POPULAR  DE  CHINA,ASIA,12720.2163182363
URY,REPÚBLICA  ORIENTAL  DEL  URUGUAY,AMÉRICA  DEL  SUR,20795.0423535553
TUR,República  de  Türkiye,EUROPA  OCCIDENTAL,10674.5041731531
ISR,ESTADO  DE  ISRAEL,ASIA,54930.9388075096
ECU,REPÚBLICA  DEL  ECUADOR,AMÉRICA  DEL  SUR,6391.28248430643
AUS,AUSTRALIA,OCEANÍA,65099.8459118981
ARG,REPÚBLICA  ARGENTINA,AMÉRICA  DEL  SUR,13650.6046294524
AZE,REPÚBLICA  DE  AZERBAIYÁN,ASIA,7762.0738285884
CUB,REPÚBLICA  DE  CUBA,AMÉRICA  CENTRAL  Y  CARIBE,
EGY,REPÚBLICA  ÁRABE  DE  EGIPTO,ÁFRICA  DEL  NORTE  Y  CERCANO  ORIENTE,4295.40749561014
PHL,REPÚBLICA  DE  FILIPINAS,ASIA,3498.5098055874
RUS,FEDERACIÓN  DE  RUSIA,EUROPA  CENTRAL  Y  ORIENTAL,15270.7060546875
GTM,REPÚBLICA  DE  GUATEMALA,AMÉRICA  CENTRAL  Y  CARIBE,5473.20856444589
IRL,IRLANDA,EUROPA  OCCIDENTAL,103983.29133582
KWT,ESTADO  DE  KUWAIT,ASIA,41079.5226998138
LBY,ESTADO  DE  LIBIA,ÁFRICA  DEL  NORTE  Y  CERCANO  ORIENTE,6716.09598462328
LBN,REPÚBLICA  LIBANESA,ASIA,
ROU,RUMANIA,EUROPA  CENTRAL  Y  ORIENTAL,15786.8017421977
AUT,REPÚBLICA  DE  AUSTRIA,EUROPA  OCCIDENTAL,52084.6811953372
TUN,REPÚBLICA  TUNECINA,ÁFRICA  DEL  NORTE  Y  CERCANO  ORIENTE,3747.41939149283
UKR,UCRANIA,EUROPA  CENTRAL  Y  ORIENTAL,4533.9755859375
VEN,REPÚBLICA  BOLIVARIANA  DE  VENEZUELA,AMÉRICA  DEL  SUR,
HTI,REPÚBLICA  DE  HAITÍ,AMÉRICA  CENTRAL  Y  CARIBE,1748.25713229469
HND,REPÚBLICA  DE  HONDURAS,AMÉRICA  CENTRAL  Y  CARIBE,3040.17304596842
CHE,Confederación  Suiza,EUROPA  OCCIDENTAL,93259.9057183024
PRY,REPÚBLICA  DEL  PARAGUAY,AMÉRICA  DEL  SUR,6153.05565720044
BOL,ESTADO  PLURINACIONAL  DE  BOLIVIA,AMÉRICA  DEL  SUR,3600.12163486427
ITA,REPÚBLICA  ITALIANA,EUROPA  OCCIDENTAL,34776.423234274
AGO,REPÚBLICA  DE  ANGOLA,ÁFRICA  SUBSAHARIANA,3000.44423053173
SAU,REINO  DE  ARABIA  SAUDITA,ASIA,30447.8837074473
BGR,REPÚBLICA  DE  BULGARIA,EUROPA  CENTRAL  Y  ORIENTAL,13974.4492487792
CZE,REPÚBLICA  CHECA,EUROPA  CENTRAL  Y  ORIENTAL,27226.6156386023
DNK,REINO  DE  DINAMARCA,EUROPA  OCCIDENTAL,67790.0539923276
FRA,REPÚBLICA  FRANCESA,EUROPA  OCCIDENTAL,40886.2532680273
IRN,REPÚBLICA  ISLÁMICA  DE  IRÁN,ASIA,4669.57137993878
MAR,REINO  DE  MARRUECOS,ÁFRICA  DEL  NORTE  Y  CERCANO  ORIENTE,3441.99145507813
MOZ,REPÚBLICA  DE  MOZAMBIQUE,ÁFRICA  SUBSAHARIANA,558.298606448221
NIC,REPÚBLICA  DE  NICARAGUA,AMÉRICA  CENTRAL  Y  CARIBE,2255.42599496242
NGA,REPÚBLICA  FEDERAL  DE  NIGERIA,ÁFRICA  SUBSAHARIANA,2162.63373428577
NLD,REINO  DE  LOS  PAÍSES  BAJOS,EUROPA  OCCIDENTAL,57025.01245598
SRB,REPÚBLICA  DE  SERBIA,EUROPA  CENTRAL  Y  ORIENTAL,9537.68286673128
SGP,REPÚBLICA  DE  SINGAPUR,ASIA,82807.6290622897
TTO,REPÚBLICA  DE  TRINIDAD  Y  TOBAGO,AMÉRICA  CENTRAL  Y  CARIBE,19629.4653400829
VNM,REPÚBLICA  SOCIALISTA  DE  VIETNAM,ASIA,4163.51429874522
PSE,ESTADO  DE  PALESTINA,ASIA,3789.32796575153
MYS,MALASIA,ASIA,11993.1876132994
ZAF,REPÚBLICA  DE  SUDÁFRICA,ÁFRICA  SUBSAHARIANA,6766.48125429478
PER,REPÚBLICA  DEL  PERÚ,AMÉRICA  DEL  SUR,7125.82993135746
BGD,REPÚBLICA  POPULAR  DE  BANGLADESH,ASIA,2688.30550090738
BRB,BARBADOS,AMÉRICA  CENTRAL  Y  CARIBE,20238.7842420154
BEL,Reino  de  Bélgica,EUROPA  OCCIDENTAL,49926.8254295305
KOR,REPÚBLICA  DE  COREA,ASIA,32422.5744864287
DOM,REPÚBLICA  DOMINICANA,AMÉRICA  CENTRAL  Y  CARIBE,10111.2457110261
FIN,REPÚBLICA  DE  FINLANDIA,EUROPA  OCCIDENTAL,50871.9304508821
IDN,REPÚBLICA  DE  INDONESIA,ASIA,4787.99930771921
JAM,JAMAICA,AMÉRICA  CENTRAL  Y  CARIBE,6047.2164567796
JPN,日本国  (JAPÓN),ASIA,34017.2718075024
KEN,REPÚBLICA  DE  KENYA,ÁFRICA  SUBSAHARIANA,2099.30193826696
LCA,SANTA  LUCÍA,AMÉRICA  CENTRAL  Y  CARIBE,13030.9284804245
NOR,REINO  DE  NORUEGA,EUROPA  OCCIDENTAL,108729.18690323
NZL,NUEVA  ZELANDIA,OCEANÍA,48418.5916631992
PAK,REPÚBLICA  ISLÁMICA  DE  PAKISTÁN,ASIA,1588.8798287911
POL,REPÚBLICA  DE  POLONIA,EUROPA  CENTRAL  Y  ORIENTAL,18688.0044867103
PRT,REPÚBLICA  PORTUGUESA,EUROPA  OCCIDENTAL,24515.2658507319
CRI,REPÚBLICA  DE  COSTA  RICA,AMÉRICA  CENTRAL  Y  CARIBE,13365.3563992692
SLV,REPÚBLICA  DE  EL  SALVADOR,AMÉRICA  CENTRAL  Y  CARIBE,5127.32166823012
HUN,HUNGRÍA,EUROPA  CENTRAL  Y  ORIENTAL,18390.1849993244
BRA,REPÚBLICA  FEDERATIVA  DEL  BRASIL,AMÉRICA  DEL  SUR,8917.67491057495
IND,REPÚBLICA  DE  LA  INDIA,ASIA,2410.88802070689
CAN,CANADÁ,AMÉRICA  DEL  NORTE,55522.445687688
MEX,ESTADOS  UNIDOS  MEXICANOS,AMÉRICA  DEL  NORTE,11496.5228716049
DZA,REPÚBLICA  ARGELINA  DEMOCRÁTICA  Y  POPULAR,ÁFRICA  DEL  NORTE  Y  CERCANO  ORIENTE,4342.63796796522
ARM,REPÚBLICA  DE  ARMENIA,ASIA,7018.05150434798
SYR,REPÚBLICA  ÁRABE  SIRIA,ASIA,
COL,REPÚBLICA  DE  COLOMBIA,AMÉRICA  DEL  SUR,6624.16539269075
ARE,EMIRATOS  ÁRABES  UNIDOS,ASIA,53707.9800809111
ETH,REPÚBLICA  DEMOCRÁTICA  FEDERAL  DE  ETIOPÍA,ÁFRICA  SUBSAHARIANA,1027.58591095964
GRC,REPÚBLICA  HELÉNICA,EUROPA  OCCIDENTAL,20867.2690861087
GUY,REPÚBLICA  COOPERATIVA  DE  GUYANA,AMÉRICA  CENTRAL  Y  CARIBE,18199.4748396968
PAN,REPÚBLICA  DE  PANAMÁ,AMÉRICA  CENTRAL  Y  CARIBE,17357.628633794
QAT,ESTADO  DE  QATAR,ASIA,87661.4501457275
SEN,REPÚBLICA  DE  SENEGAL,ÁFRICA  SUBSAHARIANA,1598.72643336012
SWE,REINO  DE  SUECIA,EUROPA  OCCIDENTAL,56424.2846986686
SUR,REPÚBLICA  DE  SURINAME,AMÉRICA  DEL  SUR,5858.82466074423
THA,REINO  DE  TAILANDIA,ASIA,6909.9562847948
DEU,REPÚBLICA  FEDERAL  DE  ALEMANIA,EUROPA  OCCIDENTAL,48717.9911402128
